Computational Biology Project 1
…
            Computational Biology Project 1

         January 1, 0001 

0. Introduction

library(tidyverse)
lbwdata1<-read_csv("Texas Births to Mothers 17 Years of Age and Younger.csv")
bmydata1<-read_csv("Texas Low Birth Weight Infants.csv")
lbwdata1

## # A tibble: 254 x 5
##    COUNTY   TOTAL_Births_M17 WHITE_Births_M17 BLACK_Births_M17 HISPANIC_Births_…
##    <chr>               <dbl>            <dbl>            <dbl>             <dbl>
##  1 ANDERSON               12                8                1                 3
##  2 ANDREWS                14                3                0                11
##  3 ANGELINA               36               14                6                16
##  4 ARANSAS                 7                2                0                 5
##  5 ARCHER                  4                3                0                 1
##  6 ARMSTRO…                2                2                0                 0
##  7 ATASCOSA               35                7                0                28
##  8 AUSTIN                 13                6                5                 2
##  9 BAILEY                  4                0                0                 4
## 10 BANDERA                 1                0                0                 1
## # … with 244 more rows

bmydata1

## # A tibble: 254 x 5
##    COUNTY    Total_Low_BW WHITE_Low_BW BLACK_Low_BW HISPANIC_Low_BW
##    <chr>            <dbl>        <dbl>        <dbl>           <dbl>
##  1 ANDERSON            46           28            9               9
##  2 ANDREWS             20            7            0              13
##  3 ANGELINA           111           58           21              32
##  4 ARANSAS             31           18            0              13
##  5 ARCHER               2            2            0               0
##  6 ARMSTRONG            3            3            0               0
##  7 ATASCOSA            53           10            0              43
##  8 AUSTIN              27           15            4               8
##  9 BAILEY               8            1            0               7
## 10 BANDERA             17           10            0               7
## # … with 244 more rows
…
1. Tidying: Rearranging Wide/Long

library(tidyverse)

lbwdata1 %>% pivot_longer(2:5) %>% separate(name,into=c("ethnicity","var","lowBW"), sep="_") %>% select(-var) %>% select(-lowBW) %>% rename(lowBW = value) ->widedatlbw
bmydata1 %>% pivot_longer(2:5) %>% separate(name,into=c("ethnicity","var","birthsM17"), sep="_") %>% select(-var) %>% select(-birthsM17) %>% rename(birthsM17 = value)->widedatbmy

widedatlbw

## # A tibble: 1,016 x 3
##    COUNTY   ethnicity lowBW
##    <chr>    <chr>     <dbl>
##  1 ANDERSON TOTAL        12
##  2 ANDERSON WHITE         8
##  3 ANDERSON BLACK         1
##  4 ANDERSON HISPANIC      3
##  5 ANDREWS  TOTAL        14
##  6 ANDREWS  WHITE         3
##  7 ANDREWS  BLACK         0
##  8 ANDREWS  HISPANIC     11
##  9 ANGELINA TOTAL        36
## 10 ANGELINA WHITE        14
## # … with 1,006 more rows

widedatbmy

## # A tibble: 1,016 x 3
##    COUNTY   ethnicity birthsM17
##    <chr>    <chr>         <dbl>
##  1 ANDERSON Total            46
##  2 ANDERSON WHITE            28
##  3 ANDERSON BLACK             9
##  4 ANDERSON HISPANIC          9
##  5 ANDREWS  Total            20
##  6 ANDREWS  WHITE             7
##  7 ANDREWS  BLACK             0
##  8 ANDREWS  HISPANIC         13
##  9 ANGELINA Total           111
## 10 ANGELINA WHITE            58
## # … with 1,006 more rows

widedatlbw %>% pivot_wider(names_from = "ethnicity",values_from="lowBW") 

## # A tibble: 254 x 5
##    COUNTY    TOTAL WHITE BLACK HISPANIC
##    <chr>     <dbl> <dbl> <dbl>    <dbl>
##  1 ANDERSON     12     8     1        3
##  2 ANDREWS      14     3     0       11
##  3 ANGELINA     36    14     6       16
##  4 ARANSAS       7     2     0        5
##  5 ARCHER        4     3     0        1
##  6 ARMSTRONG     2     2     0        0
##  7 ATASCOSA     35     7     0       28
##  8 AUSTIN       13     6     5        2
##  9 BAILEY        4     0     0        4
## 10 BANDERA       1     0     0        1
## # … with 244 more rows

widedatbmy %>% pivot_wider(names_from = "ethnicity",values_from="birthsM17") 

## # A tibble: 254 x 5
##    COUNTY    Total WHITE BLACK HISPANIC
##    <chr>     <dbl> <dbl> <dbl>    <dbl>
##  1 ANDERSON     46    28     9        9
##  2 ANDREWS      20     7     0       13
##  3 ANGELINA    111    58    21       32
##  4 ARANSAS      31    18     0       13
##  5 ARCHER        2     2     0        0
##  6 ARMSTRONG     3     3     0        0
##  7 ATASCOSA     53    10     0       43
##  8 AUSTIN       27    15     4        8
##  9 BAILEY        8     1     0        7
## 10 BANDERA      17    10     0        7
## # … with 244 more rows

In this section, I used the datasets to pivot_longer and pivot_wider. Here, the pivot_longer was used to condense all the different ethnic columns into one single ethnic column. As we can see, the table now has total, white, black and hispanic all summarized in one column with each county and low birth weight/births to mothers 17 years of age or less, respectively. The next approach was to expand this table using the pivot_wider function to create a column for each ethnicity paired with its birth number column for its dataset. As we can see, each column now has it own title and is paired with its county and birth category.

2. Joining/Merging

lbwdata1 %>% full_join(bmydata1,by="COUNTY")-> joinalbwbmy
joinalbwbmy

## # A tibble: 254 x 9
##    COUNTY TOTAL_Births_M17 WHITE_Births_M17 BLACK_Births_M17 HISPANIC_Births…
##    <chr>             <dbl>            <dbl>            <dbl>            <dbl>
##  1 ANDER…               12                8                1                3
##  2 ANDRE…               14                3                0               11
##  3 ANGEL…               36               14                6               16
##  4 ARANS…                7                2                0                5
##  5 ARCHER                4                3                0                1
##  6 ARMST…                2                2                0                0
##  7 ATASC…               35                7                0               28
##  8 AUSTIN               13                6                5                2
##  9 BAILEY                4                0                0                4
## 10 BANDE…                1                0                0                1
## # … with 244 more rows, and 4 more variables: Total_Low_BW <dbl>,
## #   WHITE_Low_BW <dbl>, BLACK_Low_BW <dbl>, HISPANIC_Low_BW <dbl>

nrow(joinalbwbmy)

## [1] 254

For this section, I merged the two dataset: Low Birth Weight Infants and Births to Mothers 17 Years of Age and Younger. Here the ID variable that was similar for the two datasets were County, thus when I used full_join, it was able to fully combine the two datasets. I used full join for this specific project because it retains the original data and did not drop any rows. Since there were no NA variables in this dataset, using full_join did not have an affect on the data, thus retaining the same number of rows for the two datasets we combined. If either dataset contained any NAs, then this would cause problems since we would have to remove some rows, which would lead to a reduced amount of data available for this study.

3. Wrangling

joinalbwbmy %>% filter(Total_Low_BW>=100 & TOTAL_Births_M17>=100)

## # A tibble: 21 x 9
##    COUNTY TOTAL_Births_M17 WHITE_Births_M17 BLACK_Births_M17 HISPANIC_Births…
##    <chr>             <dbl>            <dbl>            <dbl>            <dbl>
##  1 BELL                123               39               31               53
##  2 BEXAR               807               67               45              695
##  3 CAMER…              412               29                3              380
##  4 COLLIN              118               42               19               57
##  5 DALLAS             1341               99              301              941
##  6 DENTON              161               53               10               98
##  7 ECTOR               146               19                2              125
##  8 EL PA…              551               15                1              535
##  9 FORT …              105               14               26               65
## 10 HARRIS             1945              197              408             1340
## # … with 11 more rows, and 4 more variables: Total_Low_BW <dbl>,
## #   WHITE_Low_BW <dbl>, BLACK_Low_BW <dbl>, HISPANIC_Low_BW <dbl>

joinalbwbmy %>% select(COUNTY,starts_with("B"),starts_with("H"))

## # A tibble: 254 x 5
##    COUNTY    BLACK_Births_M17 BLACK_Low_BW HISPANIC_Births_M17 HISPANIC_Low_BW
##    <chr>                <dbl>        <dbl>               <dbl>           <dbl>
##  1 ANDERSON                 1            9                   3               9
##  2 ANDREWS                  0            0                  11              13
##  3 ANGELINA                 6           21                  16              32
##  4 ARANSAS                  0            0                   5              13
##  5 ARCHER                   0            0                   1               0
##  6 ARMSTRONG                0            0                   0               0
##  7 ATASCOSA                 0            0                  28              43
##  8 AUSTIN                   5            4                   2               8
##  9 BAILEY                   0            0                   4               7
## 10 BANDERA                  0            0                   1               7
## # … with 244 more rows

joinalbwbmy %>% arrange(desc(TOTAL_Births_M17),desc(Total_Low_BW))

## # A tibble: 254 x 9
##    COUNTY TOTAL_Births_M17 WHITE_Births_M17 BLACK_Births_M17 HISPANIC_Births…
##    <chr>             <dbl>            <dbl>            <dbl>            <dbl>
##  1 HARRIS             1945              197              408             1340
##  2 DALLAS             1341               99              301              941
##  3 HIDAL…              826                4                0              822
##  4 BEXAR               807               67               45              695
##  5 TARRA…              744              170              154              420
##  6 EL PA…              551               15                1              535
##  7 CAMER…              412               29                3              380
##  8 TRAVIS              339               30               30              279
##  9 WEBB                328                1                0              327
## 10 NUECES              208               32                5              171
## # … with 244 more rows, and 4 more variables: Total_Low_BW <dbl>,
## #   WHITE_Low_BW <dbl>, BLACK_Low_BW <dbl>, HISPANIC_Low_BW <dbl>

joinalbwbmy %>% pivot_longer(7:9) %>% select (1,7,8) %>% separate(name,into=c("ethnicity","var","birthsM17"), sep="_") %>%  unite(var,birthsM17, col = "Births_Category") %>% 
  rename(births = value) %>% group_by(ethnicity) %>% summarize(mean_lowBW=mean(births,na.rm=T),sd_lowBW=sd(births,na.rm=T))

## # A tibble: 3 x 3
##   ethnicity mean_lowBW sd_lowBW
##   <chr>          <dbl>    <dbl>
## 1 BLACK           23.0     131.
## 2 HISPANIC        55.9     232.
## 3 WHITE           47.8     157.

joinalbwbmy %>% mutate(TeenMomBirthsPerLowBW=TOTAL_Births_M17/Total_Low_BW)

## # A tibble: 254 x 10
##    COUNTY TOTAL_Births_M17 WHITE_Births_M17 BLACK_Births_M17 HISPANIC_Births…
##    <chr>             <dbl>            <dbl>            <dbl>            <dbl>
##  1 ANDER…               12                8                1                3
##  2 ANDRE…               14                3                0               11
##  3 ANGEL…               36               14                6               16
##  4 ARANS…                7                2                0                5
##  5 ARCHER                4                3                0                1
##  6 ARMST…                2                2                0                0
##  7 ATASC…               35                7                0               28
##  8 AUSTIN               13                6                5                2
##  9 BAILEY                4                0                0                4
## 10 BANDE…                1                0                0                1
## # … with 244 more rows, and 5 more variables: Total_Low_BW <dbl>,
## #   WHITE_Low_BW <dbl>, BLACK_Low_BW <dbl>, HISPANIC_Low_BW <dbl>,
## #   TeenMomBirthsPerLowBW <dbl>
…
4. Visualizing

cormat<-joinalbwbmy %>% select_if(is.numeric) %>% cor(use="pair")
tidycor<- cormat %>% as.data.frame %>% rownames_to_column("var1") %>%
  pivot_longer(-1,names_to="var2",values_to="correlation")
tidycor

## # A tibble: 64 x 3
##    var1             var2                correlation
##    <chr>            <chr>                     <dbl>
##  1 TOTAL_Births_M17 TOTAL_Births_M17          1    
##  2 TOTAL_Births_M17 WHITE_Births_M17          0.813
##  3 TOTAL_Births_M17 BLACK_Births_M17          0.885
##  4 TOTAL_Births_M17 HISPANIC_Births_M17       0.985
##  5 TOTAL_Births_M17 Total_Low_BW              0.975
##  6 TOTAL_Births_M17 WHITE_Low_BW              0.870
##  7 TOTAL_Births_M17 BLACK_Low_BW              0.899
##  8 TOTAL_Births_M17 HISPANIC_Low_BW           0.973
##  9 WHITE_Births_M17 TOTAL_Births_M17          0.813
## 10 WHITE_Births_M17 WHITE_Births_M17          1    
## # … with 54 more rows
…
In Figure 1, I created a correlation heatmap of the each ethnic group for the two categories: Low Infant Birth Weight and Births to Mothers 17 and younger. I was really surprised and excited to find that there was a strong correlation to all of the variables. We can see that there are relationships between the same AND different ethnic groups. However, we can see that on the right hand side of the correlation heatmap that the white population had a slightly lesser relationship as compared to the two minority groups. Perhaps, socioeconomic status was a confounding variable in the this study. This heatmap shows that there are strong,positive trends with the low birth weight and births from teenage mothers for all ethnic groups.

In the second figure, I created a 3 variable plot that showed how the black population in Texas counties had low birth weights and births to teen mothers. We can see a positive trend in the chart and that larger counties had more births, but nearly at the same proportion as the smaller counties. One really cool piece of data that I wish I had with this set would be the access/distance to a physician, since this could also be a result of people living in medical deserts in rural counties. I would love to follow up on this!

In Figure 3, it shows a side-by-side bar chart that shows the Texas counties for low birth weights per ethnic group and total. We can see that from this chart, that Hispanics have more underweight born infants… very interesting. Perhaps there are more Hispanics in these areas or other confounding variables. I was pleased to find that all three figures provided strong, positive relationships that helped us make to some conclusions as well as form questions for future studies.

5. Dimensionality Reduction

#kMean
joinalbwbmy

## # A tibble: 254 x 9
##    COUNTY TOTAL_Births_M17 WHITE_Births_M17 BLACK_Births_M17 HISPANIC_Births…
##    <chr>             <dbl>            <dbl>            <dbl>            <dbl>
##  1 ANDER…               12                8                1                3
##  2 ANDRE…               14                3                0               11
##  3 ANGEL…               36               14                6               16
##  4 ARANS…                7                2                0                5
##  5 ARCHER                4                3                0                1
##  6 ARMST…                2                2                0                0
##  7 ATASC…               35                7                0               28
##  8 AUSTIN               13                6                5                2
##  9 BAILEY                4                0                0                4
## 10 BANDE…                1                0                0                1
## # … with 244 more rows, and 4 more variables: Total_Low_BW <dbl>,
## #   WHITE_Low_BW <dbl>, BLACK_Low_BW <dbl>, HISPANIC_Low_BW <dbl>
…
#PAM
joinalbwbmy

## # A tibble: 254 x 9
##    COUNTY TOTAL_Births_M17 WHITE_Births_M17 BLACK_Births_M17 HISPANIC_Births…
##    <chr>             <dbl>            <dbl>            <dbl>            <dbl>
##  1 ANDER…               12                8                1                3
##  2 ANDRE…               14                3                0               11
##  3 ANGEL…               36               14                6               16
##  4 ARANS…                7                2                0                5
##  5 ARCHER                4                3                0                1
##  6 ARMST…                2                2                0                0
##  7 ATASC…               35                7                0               28
##  8 AUSTIN               13                6                5                2
##  9 BAILEY                4                0                0                4
## 10 BANDE…                1                0                0                1
## # … with 244 more rows, and 4 more variables: Total_Low_BW <dbl>,
## #   WHITE_Low_BW <dbl>, BLACK_Low_BW <dbl>, HISPANIC_Low_BW <dbl>

joinalbwbmy %>% select(-COUNTY,-TOTAL_Births_M17,-HISPANIC_Births_M17,-Total_Low_BW,-HISPANIC_Low_BW)->clust_dat1
clust_dat1

## # A tibble: 254 x 4
##    WHITE_Births_M17 BLACK_Births_M17 WHITE_Low_BW BLACK_Low_BW
##               <dbl>            <dbl>        <dbl>        <dbl>
##  1                8                1           28            9
##  2                3                0            7            0
##  3               14                6           58           21
##  4                2                0           18            0
##  5                3                0            2            0
##  6                2                0            3            0
##  7                7                0           10            0
##  8                6                5           15            4
##  9                0                0            1            0
## 10                0                0           10            0
## # … with 244 more rows
…
